{
    "d": [
        "Amazonas",
        "Antioquia",
        "Arauca",
        "Archipielago De San Andres, Santa Catalina Y Providencia",
        "Atlantico",
        "Bogota D.C.",
        "Bolivar",
        "Boyaca",
        "Caldas",
        "Caqueta",
        "Casanare",
        "Cauca",
        "Cesar",
        "Choco",
        "Cordoba",
        "Cundinamarca",
        "Guainia",
        "Guaviare",
        "Huila",
        "La Guajira",
        "Magdalena",
        "Meta",
        "Nariño",
        "Norte De Santander",
        "Putumayo",
        "Quindio",
        "Risaralda",
        "Santander",
        "Sucre",
        "Tolima",
        "Valle  Del Cauca",
        "Valle Del Cauca",
        "Vaupes",
        "Vichada"
    ]
}
